---
source: render/tests/snapshots.rs
expression: "&svg"
---
<svg xmlns="http://www.w3.org/2000/svg">
<rect fill="#ffffff" fill-opacity="1" height="100%" width="100%"/>
<path d="M150 150L250 150" fill="none" stroke="#000000" stroke-opacity="1" transform="matrix(1 0 0 1 0 0)"/>
</svg>
